\relax 
\citation{ridge}
\citation{lasso}
\citation{mnist}
\@writefile{toc}{\contentsline {section}{Introduction}{2}}
\@writefile{toc}{\contentsline {section}{Theoretical Background}{2}}
\@writefile{toc}{\contentsline {paragraph}{Notation}{2}}
\@writefile{toc}{\contentsline {paragraph}{Multi-class classification as a linear regression problem.}{2}}
\newlabel{eq:ohe_answers}{{1}{2}}
\newlabel{eq:least_squares}{{2}{2}}
\newlabel{eq:pinverse}{{3}{2}}
\citation{ministpython}
\citation{classificationreport}
\newlabel{eq:linreg}{{4}{3}}
\newlabel{eq:ridge}{{5}{3}}
\newlabel{eq:lasso}{{6}{3}}
\@writefile{toc}{\contentsline {paragraph}{Metrics for classification quality}{3}}
\@writefile{toc}{\contentsline {section}{Algorithm Implementation and Development}{3}}
\@writefile{toc}{\contentsline {paragraph}{Section 1: Reading and preprocessing the data}{3}}
\@writefile{toc}{\contentsline {paragraph}{Section 2: Determining the mapping from the image space to the label space}{3}}
\@writefile{toc}{\contentsline {paragraph}{Section 3: Feature selection via sparsity promotion}{3}}
\@writefile{toc}{\contentsline {paragraph}{Section 4: Establishing sets of important pixels for individual classifiers.}{3}}
\providecommand*\caption@xref[2]{\@setref\relax\@undefined{#1}}
\newlabel{table:classification_quality}{{\caption@xref {table:classification_quality}{ on input line 269}}{4}}
\@writefile{lot}{\contentsline {table}{\numberline {1}{\ignorespaces Classification scores for different linear regression solvers. All of them have similar accuracy, yet LASSO provides significantly more sparse solution than other competitors.\relax }}{4}}
\newlabel{fig:important_pixels}{{\caption@xref {fig:important_pixels}{ on input line 287}}{4}}
\@writefile{lof}{\contentsline {figure}{\numberline {1}{\ignorespaces The importance of pixels is shown at the upper-left figure. For each pixel the corresponding blue line indicates for how long this pixel had a non-zero coefficient in the model. Top-100 important pixels are marked with red, they are illustrated on the bottom-right part of the image. The accuracy and sparsity plots are in the bottom-left part of the picture, the x-axis is shared for all three plots. The top-12 important pixels coordinates are listed on the right.\relax }}{4}}
\@writefile{toc}{\contentsline {section}{Computational Results}{4}}
\@writefile{toc}{\contentsline {paragraph}{Problem 1}{4}}
\@writefile{toc}{\contentsline {paragraph}{Problem 2}{4}}
\@writefile{toc}{\contentsline {paragraph}{Problem 3}{4}}
\@writefile{toc}{\contentsline {paragraph}{Problem 4}{4}}
\@writefile{toc}{\contentsline {paragraph}{Problem 5}{4}}
\bibcite{ministpython}{1}
\bibcite{classificationreport}{2}
\bibcite{ridge}{3}
\newlabel{fig:important_pixels}{{\caption@xref {fig:important_pixels}{ on input line 294}}{5}}
\@writefile{lof}{\contentsline {figure}{\numberline {2}{\ignorespaces The optimal point, the steep slope criteria, is almost the same to all classifiers, although sparsity increases with different rate.\relax }}{5}}
\@writefile{toc}{\contentsline {section}{Summary and Conclusion}{5}}
\bibcite{lasso}{4}
\bibcite{mnist}{5}
\@writefile{toc}{\contentsline {section}{Appendix A}{7}}
