\relax 
\@writefile{toc}{\contentsline {section}{Problem 1}{2}}
\@writefile{toc}{\contentsline {paragraph}{Solution}{2}}
\@writefile{toc}{\contentsline {section}{Problem 2}{4}}
\@writefile{toc}{\contentsline {paragraph}{Solution}{4}}
\@writefile{toc}{\contentsline {section}{Problem 3}{5}}
\@writefile{toc}{\contentsline {paragraph}{Solution}{5}}
\@writefile{toc}{\contentsline {section}{Problem 4}{6}}
\@writefile{toc}{\contentsline {paragraph}{Solution}{6}}
